{
  "reseau": "Eventum",
  "warningMessageCount": 999,
  "themeColor": "#d08335",
  "themeColorTitle": "#f7f7f7",
  "colors": [
    "#EF5350",
    "#EC407A",
    "#AB47BC",
    "#7E57C2",
    "#5C6BC0",
    "#42A5F5",
    "#29B6F6",
    "#26C6DA",
    "#26A69A",
    "#66BB6A",
    "#9CCC65",
    "#D4E157",
    "#FFCA28",
    "#FFA726",
    "#FF7043",
    "#8D6E63",
    "#78909C"
  ],

  "useFormatNumberFrance": false,

  "useWebRTCVocal": false,
  "RTCConfig": {
    "iceServers": [{
      "urls": ["turn:barrax.needrp.net"],
      "username": "gcphone",
      "credential": "gcphone"
    }]
  },

  "//": "REQUIRES https://github.com/citizenfx/screenshot-basic otherwise set enableTakePhoto to false. Thanks to @GLDmACK for his Upload Service!!!",
  "enableTakePhoto": true,
  "fileUploadService_Url": "https://discord.com/api/webhooks/999682137605279754/J_WqTcO7lud0wofzYhNtjLYgB76909_Np6O8Im9ZfIOlPmI1xqDdb5FZGERCd4HE7xLC",
  "fileUploadService_Field": "image",

  "background": {
    "Calvin & Hobbes": "back001.jpg",
    "Destiny": "back002.jpg",
    "Stormtrooper": "back003.jpg",
    "Re-Ignited": "Reignited.jpg",
    "Hot vs Cold Fists": "fists.jpg",
    "Dragon": "dragon.jpg",
    "Custom URL": "URL"
  },
  "background_default": {
    "label": "Los Santos",
    "value": "los_santos.png"
  },

  "coque": {
    "Samsung Galaxy S8": "s8.png",
    "Samsung Galaxy S9 Black": "s9black.png",
    "Samsung Galaxy S9 White": "s9white.png",
    "Samsung Galaxy S10": "s10.png",
    "Iphone X": "iphonex.png",
    "Iphone X2": "iphonex2.png",
    "Iphone X3": "iphonex3.png",
    "Iphone 11 Green": "iphone11green.png",
    "Google Pixel 3a XL": "pixel3axl.png",
    "Google Top Cam": "op.png",
    "Huawei": "huawei.png",
    "Brick Base": "base.png",
    "Transparent": "transparent.png"
  },

  "sonido": {
    "Astronomia": "ring.ogg",
    "Crystallize": "Crystallize.ogg",
    "Iphone 11": "iphone_11.ogg",
    "XXXTentacion": "xtentacion.ogg",
    "Dance Monkey": "dance_monkey.ogg",
    "Don't Look Now": "dont-look-now",
    "I'm a Gummy Bear": "gummybear.ogg",
    "Non Copyright - Spectre": "Alan-Walker-Spectre.ogg",
    "Non Copyright 2 - Mortals": "Warriyo-Mortals.ogg",
    "Eventum": "eventum_1.mp3"
  },

  "coque_default": {
    "label": "Samsung S8",
    "value": "s8.png"
  },

  "sonido_default": {
    "label": "Eventum",
    "value": "eventum_1.mp3"
  },

  "serviceCall": [{
      "display": "Police",
      "icon": "/html/static/img/icons_app/police.png",
      "subMenu": [{
          "title": "Send Message",
          "action": "sendMessage",
          "eventName": "esx_addons_gcphone:call",
          "icons": "fa-comments",
          "type": {
            "number": "police"
          }
        },
        {
          "title": "Call Police Station",
          "action": "call",
          "eventName": "gcphone:autoCallNumber",
          "icons": "fa-phone",
          "type": {
            "number": "911"
          }
        }
      ]
    },
    {
      "display": "Ambulance",
      "icon": "/html/static/img/icons_app/ems.png",
      "subMenu": [{
        "action": "sendMessage",
        "title": "Send Message",
        "icons": "fa-comments",
        "eventName": "esx_addons_gcphone:call",
        "type": {
          "number": "ambulance"
        }
      }]
    },
    {
      "display": "Benny's",
      "icon": "/html/static/img/icons_app/bennys.png",
      "subMenu": [{
          "title": "Send Message",
          "action": "sendMessage",
          "eventName": "esx_addons_gcphone:call",
          "icons": "fa-comments",
          "type": {
            "number": "bennys"
          }
        }
      ]
    },
    {
      "display": "Weazel News",
      "icon": "/html/static/img/icons_app/weazel_news.png",
      "subMenu": [{
          "title": "Send Message",
          "action": "sendMessage",
          "eventName": "esx_addons_gcphone:call",
          "icons": "fa-comments",
          "type": {
            "number": "journaliste"
          }
        }
      ]
    },
    {
      "display": "Downtown Cab Co.",
      "icon": "/html/static/img/icons_app/taxi.png",
      "subMenu": [{
          "title": "Send Message",
          "action": "sendMessage",
          "eventName": "esx_addons_gcphone:call",
          "icons": "fa-comments",
          "type": {
            "number": "taxi"
          }
        }
      ]
    }
  ],

  "defaultContacts": [{
      "number": "ambulance",
      "display": "Ambulance",
      "icon": "/html/static/img/icons_app/ems.png"
    },
    {
      "number": "police",
      "display": "Police",
      "icon": "/html/static/img/icons_app/police.png"
    },
    {
      "number": "bennys",
      "display": "Benny's",
      "icon": "/html/static/img/icons_app/bennys.png"
    },
    {
      "number": "journaliste",
      "display": "Weazel News",
      "icon": "/html/static/img/icons_app/weazel_news.png"
    },
    {
      "number": "taxi",
      "display": "Downtown Cab Co.",
      "icon": "/html/static/img/icons_app/taxi.png"
    }
  ],

"apps": [
    {
      "name": "Phone",
      "menuTitle": "visible",
      "fr_FR__name": "Téléphone",
      "cs_CZ__name": "Telefon",
      "en_US__name": "Phone",
      "de_DE__name": "Telefon",
      "pl_PL__name": "Telefon",
      "es_ES__name": "Teléfono",
      "pt_PT__name": "Chamadas",
      "icons": "/html/static/img/icons_app/call.png",
      "color": "#5BC236",
      "routeName": "appels",
      "inHomePage": true
    },
    {
      "name": "Messages",
      "menuTitle": "visible",
      "fr_FR__name": "Messages",
      "en_US__name": "Messages",
      "cs_CZ__name": "Zprávy",
      "de_DE__name": "Nachrichten",
      "pl_PL__name": "Wiadomości",
      "es_ES__name": "Mensajes",
      "pt_PT__name": "Mensagens",
      "icons": "/html/static/img/icons_app/sms.png",
      "routeName": "messages",
      "color": "#5BC236",
      "inHomePage": true,
      "puceRef": "nbMessagesUnread"
    },
    {
      "name": "Contacts",
      "menuTitle": "visible",
      "fr_FR__name": "Contacts",
      "en_US__name": "Contacts",
      "cs_CZ__name": "Kontakty",
      "de_DE__name": "Kontakte",
      "pl_PL__name": "Kontakty",
      "es_ES__name": "Contactos",
      "pt_PT__name": "Contactos",
      "icons": "/html/static/img/icons_app/contacts.png",
      "routeName": "contacts",
      "color": "#1180FF",
      "inHomePage": true
    },
    {
      "name": "Twitter",
      "menuTitle": "visible",
      "fr_FR__name": "Twitter",
      "en_US__name": "Twitter",
      "de_DE__name": "Twitter",
      "pl_PL__name": "Twitter",
      "es_ES__name": "Twitter",
      "pt_PT__name": "Twitter",
      "icons": "/html/static/img/icons_app/twitter.png",
      "routeName": "twitter.splash",
      "color":"#61c5ec",
      "inHomePage": true
    },

    {
      "name": "EMS",
      "menuTitle": "visible",
      "fr_FR__name": "EMS",
      "en_US__name": "EMS",
      "de_DE__name": "EMS",
      "pl_PL__name": "EMS",
      "es_ES__name": "EMS",
      "pt_PT__name": "EMS",
      "icons": "/html/static/img/icons_app/emergencies.png",
      "routeName": "emergency_calls",
      "color":"#e03b24",
      "inHomePage": true,
      "enabled": false
    },
    {
      "name": "Settings",
      "menuTitle": "visible",
      "fr_FR__name": "Paramètres",
      "en_US__name": "Settings",
      "cs_CZ__name": "Nastavení",
      "de_DE__name": "Einstellungen",
      "pl_PL__name": "Ustawienia",
      "es_ES__name": "Ajustes",
      "pt_PT__name": "Definições",
      "icons": "/html/static/img/icons_app/settings.png",
      "routeName": "parametre",
      "color": "#95a5a6",
      "inHomePage": false
    },
    {
      "name": "Bank",
      "menuTitle": "visible",
      "fr_FR__name": "Banque",
      "en_US__name": "Bank",
      "cs_CZ__name": "Banka",
      "de_DE__name": "Bank",
      "pl_PL__name": "Lawka",
      "es_ES__name": "Banco",
      "pt_PT__name": "Banco",
      "icons": "/html/static/img/icons_app/bank.png",
      "routeName": "bank",
      "color": "#ff3f34",
      "inHomePage": false
    },
    {
      "name": "Pacific",
      "menuTitle": "visible",
      "fr_FR__name": "Banque Société",
      "en_US__name": "Company Bank",
      "cs_CZ__name": "Company Bank",
      "de_DE__name": "Company Bank",
      "pl_PL__name": "Company Bank",
      "es_ES__name": "Company Bank",
      "pt_PT__name": "Company Bank",
      "icons": "/html/static/img/icons_app/pacific.png",
      "routeName": "pacific",
      "color": "#e62217",
      "inHomePage": false,
      "enabled": false
    },
    {
      "name": "Photo Gallery",
      "menuTitle": "visible",
      "fr_FR__name": "Galerie Photo",
      "cs_CZ__name": "Photo Gallery",
      "en_US__name": "Photo Gallery",
      "de_DE__name": "Photo Gallery",
      "pl_PL__name": "Photo Gallery",
      "es_ES__name": "Photo Gallery",
      "pt_PT__name": "Photo Gallery",
      "icons": "/html/static/img/icons_app/camera.png",
      "color": "rgb(189, 0, 206)",
      "routeName": "photo",
      "inHomePage": true
    },
    {
      "name": "Dark Chat",
      "menuTitle": "visible",
      "fr_FR__name": "Dark Chat",
      "en_US__name": "Dark Chat",
      "de_DE__name": "Dark Net",
      "pl_PL__name": "Czat czarny",
      "es_ES__name": "Chat Oscuro",
      "pt_PT__name": "Chat Anônimo",
      "icons": "/html/static/img/icons_app/darkchat.png",
      "color": "#1e272e",
      "routeName": "seized"
    },
    {
      "name": "Notes",
      "menuTitle": "visible",
      "fr_FR__name": "Notes",
      "cs_CZ__name": "Poznámky",
      "en_US__name": "Notes",
      "de_DE__name": "Notizen",
      "pl_PL__name": "Notatki",
      "es_ES__name": "Notas",
      "pt_PT__name": "Notas",
      "routeName": "notes",
      "color": "#feca57",
      "icons": "/html/static/img/icons_app/notes.png"
    },
    {
      "name": "Flappy Foub",
      "menuTitle": "visible",
      "fr_FR__name": "Flappy Foub",
      "en_US__name": "Flappy Foub",
      "cs_CZ__name": "Flappy Foub",
      "de_DE__name": "Flappy Foub",
      "pl_PL__name": "Flappy Foub",
      "es_ES__name": "Flappy Foub",
      "pt_PT__name": "Flappy Foub",
      "icons": "/html/static/img/icons_app/fabbybird.png",
      "routeName": "fabbyBird",
      "color": "#078CFD",
      "inHomePage": true
    },
    {
      "name": "GPS",
      "menuTitle": "visible",
      "fr_FR__name": "GPS",
      "en_US__name": "GPS",
      "cs_CZ__name": "GPS",
      "de_DE__name": "GPS",
      "pl_PL__name": "GPS",
      "es_ES__name": "GPS",
      "pt_PT__name": "GPS",
      "icons": "/html/static/img/icons_app/gps.png",
      "routeName": "gps",
      "color": "#c8c8c8",
      "inHomePage": true
    }
  ],
  "defaultLanguage": "fr_FR",
  "language": {
     "fr_FR": {
      "NAME": "Français",
      "PHONE_WARNING_MESSAGE": "Mémoire saturée, supprimez des messages ou vous ne pourrez plus en recevoir",
      "PHONE_WARNING_MESSAGE_MESS": "Messages",
      "CONFIRM": "Accepter",
      "CANCEL": "Annuler",
      "APP_CONFIG_TITLE": "Paramètres",
      "APP_CONFIG_MY_MUNBER": "Mon numéro",
      "APP_CONFIG_WALLPAPER": "Fond d'écran",
      "APP_CONFIG_CASE": "Coque téléphone",
      "APP_CONFIG_SOUND": "Sonnerie",
      "APP_CONFIG_ZOOM": "Zoom",
      "APP_CONFIG_VOLUME": "Volume",
      "APP_CONFIG_LANGUAGE": "Langue",
      "APP_CONFIG_MOUSE_SUPPORT": "Controle souris",
      "APP_CONFIG_RESET": "Formater",
      "APP_CONFIG_RESET_CONFIRM": "TOUT SUPPRIMER",
      "APP_PHONE_CALL": "Appeler",
      "APP_PHONE_CALL_ANONYMOUS": "Appeler en anomyne",
      "APP_PHONE_DELETE": "Effacer",
      "APP_PHONE_DELETE_ALL": "Effacer TOUT.",
      "APP_PHONE_CANCEL": "Annuler",
      "APP_PHONE_ADD": "Ajouter",
      "APP_PHONE_TITLE": "Téléphone",
      "APP_PHONE_MENU_FAVORITES": "Favoris",
      "APP_PHONE_MENU_RECENTS": "Récents",
      "APP_PHONE_MENU_CONTACTS": "Contacts",
      "APP_PHONE_ENTER_NUMBER": "Entrer un numero",
      "APP_PHONE_NUMBER_HIDDEN": "Numéro masqué",
      "APP_PHONE_NUMBER_UNKNOWN": "Inconnu",
      "APP_PHONE_CALL_IGNORE": "Ignorer",
      "APP_PHONE_BUSY": "Occupé",
      "APP_BANK_TITLE": "Banque",
      "APP_BOURSE_TITLE": "Bourse",
      "APP_PHOTOGALLERY_TITLE": "Galerie Photo",
      "APP_PHOTO_SHARE": "Partager",
      "APP_CONTACT_TITLE": "Contact",
      "APP_CONTACT_NEW": "Nouveau Contact",
      "APP_CONTACT_SEARCH": "Rechercher...",
      "APP_CONTACT_EDIT": "Modifier le contact",
      "APP_CONTACT_SAVE": "Enregistrer",
      "APP_CONTACT_CANCEL": "Annuler",
      "APP_CONTACT_DELETE": "Supprimer",
      "APP_CONTACT_LABEL_NAME": "Prénom - Nom",
      "APP_CONTACT_LABEL_NUMBER": "Numéro",
      "APP_MESSAGE_TITLE": "Messages",
      "APP_MESSAGE_SMS": "Message",
      "APP_MESSAGE_NEW_MESSAGE": "Nouveau Message",
      "APP_MESSAGE_ERASE_CONVERSATION": "Effacer la conversation",
      "APP_MESSAGE_ERASE_ALL_CONVERSATIONS": "Effacer toutes les conv.",
      "APP_MESSAGE_ERASE_SURE": "Êtes-vous sûr(e) de vouloir supprimer cette conversation ?",
      "APP_MESSAGE_ERASE_ALL_SURE": "Êtes-vous sûr(e) de vouloir supprimer <strong>TOUTES</strong> les conversations ?",
      "APP_MESSAGE_SEND_GPS": "Envoyer Coord GPS",
      "APP_MESSAGE_SEND_PHOTO": "Envoyer une photo",
      "APP_SELECT_PHOTO": "Sélectionner la photo",
      "APP_MESSAGE_SET_GPS": "Position GPS",
      "APP_MESSAGE_SEND_GPS_REALTIME": "Position GPS en temps réel",
      "APP_MESSAGE_SEND_GPS_REALTIME_TIME_1": "1 Minute",
      "APP_MESSAGE_SEND_GPS_REALTIME_TIME_2": "5 Minutes",
      "APP_MESSAGE_SEND_GPS_REALTIME_TIME_3": "10 Minutes",
      "APP_MESSAGE_SEND_DESTINATION_GPS": "Envoyer la destination GPS",
      "APP_MESSAGE_ZOOM_IMG": "Zoom",
      "APP_MESSAGE_DELETE": "Effacer",
      "APP_MESSAGE_MESS_NUMBER": "Numero ",
      "APP_MESSAGE_SAVE_CONTACT": "Enregistrer le contact",
      "APP_SAVE_PHOTO": "Enregistrer la photo",
      "APP_MESSAGE_MESS_SMS": "SMS",
      "APP_MESSAGE_MESS_CALL": "Appeler",
      "APP_MESSAGE_MESS_COPY": "Copier",
      "APP_MESSAGE_CONTACT_TITLE": "Contacts",
      "APP_MESSAGE_CONTRACT_ENTER_NUMBER": "Enter un numero",
      "APP_MESSAGE_PLACEHOLDER_ENTER_MESSAGE": "Envoyer un message",
      "APP_SEIZED_TITLE": "🔒",
      "APP_DARKTCHAT_TITLE": "Dark Tchat",
      "APP_DARKTCHAT_NEW_CHANNEL": "Ajouter un channel",
      "APP_DARKTCHAT_DELETE_CHANNEL": "Effacer le channel",
      "APP_DARKTCHAT_CANCEL": "Annuler",
      "APP_DARKTCHAT_PLACEHOLDER_ENTER_MESSAGE": "Entrer un message",
      "APP_TWITTER_NAME": "Twitter",
      "APP_TWITTER_VIEW_TWITTER": "Twitter",
      "APP_TWITTER_VIEW_TOP_TWEETS": "Top Tweets",
      "APP_TWITTER_VIEW_TWEETER": "Tweeter",
      "APP_TWITTER_VIEW_SETTING": "Paramètres",
      "APP_TWITTER_NEW_ACCOUNT_USERNAME": "Nom utilisateur (>= 4)",
      "APP_TWITTER_NEW_ACCOUNT_PASSWORD": "Mot de passe (>= 6)",
      "APP_TWITTER_NEW_ACCOUNT_PASSWORD_CONFIRM": "Confirmer mot de passe",
      "APP_TWITTER_NEW_ACCOUNT_AVATAR": "Url de votre avatar",
      "APP_TWITTER_PLACEHOLDER_MESSAGE": "Quoi de neuf ?",
      "APP_TWITTER_BUTTON_ACTION_TWEETER": "Tweeter",
      "APP_TWITTER_BUTTON_PHOTO_TWEETER": "Ajouter photo",
      "APP_TWITTER_ACCOUNT_LOGIN": "Se connecter",
      "APP_TWITTER_ACCOUNT_LOGOUT": "Se déconnecter",
      "APP_TWITTER_ACCOUNT_PARAM": "Mon compte",
      "APP_TWITTER_ACCOUNT_AVATAR": "Changer d'avatar (URL)",
      "APP_TWITTER_ACCOUNT_AVATAR_TAKE": "Changer d'avatar (appareil photo)",
      "APP_TWITTER_ACCOUNT_CHANGE_PASSWORD": "Changer Mot de passe",
      "APP_TWITTER_ACCOUNT_NEW": "Nouveau compte",
      "APP_TWIITER_ACCOUNT_SAVE": "Enregistrer",
      "APP_TWIITER_ACCOUNT_CREATE": "Créer le compte",
      "APP_TWIITER_ACCOUNT_CANCEL": "Annuler",
      "APP_TWITTER_ACCOUNT_USERNAME": "Nom utilisateur",
      "APP_TWITTER_ACCOUNT_PASSWORD": "Mot de passe",
      "APP_TWITTER_VIEW_REPLY": "Répondre",
      "APP_TWITTER_TWEET_DELETED": "Tweet supprimé",
      "APP_TWITTER_NOTIFICATION": "Notification",
      "APP_TWITTER_NOTIFICATION_WHEN": "Etre notifié",
      "APP_TWITTER_NOTIFICATION_ALL": "Tous les messages",
      "APP_TWITTER_NOTIFICATION_MENTION": "Mentions seulement",
      "APP_TWITTER_NOTIFICATION_NEVER": "Aucun",
      "APP_TWITTER_NOTIFICATION_SOUND": "Jouer un son",
      "APP_YES": "Oui",
      "APP_NO": "Non",
      "APP_TWITTER_NOTIF_ACCOUNT_CREATE_SUCCESS": "Votre compte Twitter a été créé",
      "APP_TWITTER_NOTIF_ACCOUNT_CREATE_ERROR": "Votre compte Twitter n'a pas pu être créé (Pseudo déjà utilisé)",
      "APP_TWITTER_NOTIF_LOGIN_SUCCESS": "Vous êtes connecté à twitter",
      "APP_TWITTER_NOTIF_LOGIN_ERROR": "Compte / Mot de passe non valide",
      "APP_TWITTER_BANNED": "Votre compte a été banni",
      "APP_TWITTER_NOTIF_AVATAR_SUCCESS": "Votre avatar a été changé",
      "APP_TWITTER_NOTIF_NEW_PASSWORD_SUCCESS": "Votre mot de passe a été modifié",
      "APP_TWITTER_NOTIF_NEW_PASSWORD_ERROR": "Oups ... votre mot de passe n'a pas pu être modifié",
      "APP_TWITTER_NOTIF_NEW_PASSWORD_MISS_MATCH": "Les mots de passe ne correspondent pas",
      "APP_TWITTER_NOTIF_NEW_PASSWORD_LENGTH_ERROR": "Mot de passe trop court",
      "APP_NOTES": "Notes",
      "APP_BANK_TITLE_BALANCE": "Solde du compte",
      "APP_BANK_TITLE_ENTER_MONEY": "Numéro de compte",
      "APP_BANK_BUTTON_TRANSFER": "Transfert",
      "APP_BANK_BUTTON_CANCEL": "Annuler",
      "APP_DARKTCHAT_NEW_NOTE": "Ajouter une note",
      "APP_DARKTCHAT_DELETE_NOTE": "Supprimer une note",
      "APP_EMERGENCY_TITLE": "Appels d'urgence",
      "APP_EMERGENCY_MARK_DONE": "Urgence résolue",
      "APP_EMERGENCY_MARK_UNDONE": "Urgence non résolue",
      "APP_EMERGENCY_TAKEN_BY": "pris par",
      "APP_EMERGENCY_TAKE": "Prendre l'appel",
      "APP_EMERGENCY_UNTAKE": "Abandonner l'appel",
      "APP_EMERGENCY_GPS": "Position GPS",
      "APP_GPS_TITLE": "GPS",
      "APP_GPS_MSG": "Géolocalisation en cours...",

      "TIMEAGO": [
        "à l'instant",
        ["il y a %s seconde", "il y a %s secondes"],
        ["il y a %s minute", "il y a %s minutes"],
        ["il y a %s heure", "il y a %s heures"],
        ["il y a %s jour", "il y a %s jours"],
        ["il y a %s semaine", "il y a %s semaines"],
        ["il y a %s mois", "il y a %s mois"],
        ["il y a %s an", "il y a %s ans"]
      ]

    },
    "en_US": {
      "NAME": "English",
      "PHONE_WARNING_MESSAGE": "WARNING",
      "PHONE_WARNING_MESSAGE_MESS": "Messages",
      "CONFIRM": "Accept",
      "CANCEL": "Cancel",
      "APP_CONFIG_TITLE": "Settings",
      "APP_MESSAGE_SAVE_CONTACT": "Save contact",
      "APP_SAVE_PHOTO": "Save photo",
      "APP_CONFIG_MY_MUNBER": "My Number",
      "APP_CONFIG_WALLPAPER": "Wallpaper",
      "APP_CONFIG_CASE": "Phone Case",
      "APP_CONFIG_SOUND": "Ringtone",
      "APP_CONFIG_ZOOM": "Zoom",
      "APP_CONFIG_VOLUME": "Volume",
      "APP_CONFIG_LANGUAGE": "Language",
      "APP_PHONE_CALL_ANONYMOUS": "Anonymous Call",
      "APP_PHONE_NUMBER_HIDDEN": "Hidden Number",
      "APP_PHONE_NUMBER_UNKNOWN": "Unknown",
      "APP_CONFIG_MOUSE_SUPPORT": "Mouse Control",
      "APP_CONFIG_RESET": "Format",
      "APP_CONFIG_RESET_CONFIRM": "ERASE EVERYTHING",
      "APP_PHONE_CALL": "Call",
      "APP_PHONE_DELETE": "Delete",
      "APP_PHONE_DELETE_ALL": "Delete All",
      "APP_PHONE_CANCEL": "Cancel",
      "APP_PHONE_ADD": "Add Contact",
      "APP_PHONE_TITLE": "Telephone Number",
      "APP_PHONE_MENU_FAVORITES": "Favorites",
      "APP_PHONE_MENU_RECENTS": "Recent",
      "APP_PHONE_MENU_CONTACTS": "Contacts",
      "APP_PHONE_ENTER_NUMBER": "Enter a Number",
      "APP_BANK_TITLE": "Bank",
      "APP_BOURSE_TITLE": "Stock Exchange",
      "APP_CONTACT_TITLE": "Contact Details",
      "APP_CONTACT_NEW": "New Contact",
      "APP_CONTACT_SEARCH": "Search...",
      "APP_PHOTOGALLERY_TITLE": "Galerie Photo",
      "APP_PHOTO_SHARE": "Partager",
      "APP_CONTACT_EDIT": "Edit Contact",
      "APP_CONTACT_SAVE": "Save",
      "APP_CONTACT_CANCEL": "Cancel",
      "APP_CONTACT_DELETE": "Delete",
      "APP_CONTACT_LABEL_NAME": "First name - Last name",
      "APP_CONTACT_LABEL_NUMBER": "Number",
      "APP_MESSAGE_TITLE": "Messages",
      "APP_MESSAGE_NEW_MESSAGE": "New Message",
      "APP_MESSAGE_ERASE_CONVERSATION": "Delete Conversation",
      "APP_MESSAGE_ERASE_ALL_CONVERSATIONS": "Delete All",
      "APP_MESSAGE_ERASE_SURE": "Êtes-vous sûr(e) de vouloir supprimer cette conversation ?",
      "APP_MESSAGE_ERASE_ALL_SURE": "Êtes-vous sûr(e) de vouloir supprimer TOUTES les conversations ?",
      "APP_MESSAGE_SEND_GPS": "Send GPS Coordinates",
      "APP_MESSAGE_SET_GPS": "Set GPS",
      "APP_MESSAGE_SEND_GPS_REALTIME": "Share Real-time GPS Position",
      "APP_MESSAGE_SEND_GPS_REALTIME_TIME_1": "1 Minute",
      "APP_MESSAGE_SEND_GPS_REALTIME_TIME_2": "5 Minutes",
      "APP_MESSAGE_SEND_GPS_REALTIME_TIME_3": "10 Minutes",
      "APP_MESSAGE_SEND_DESTINATION_GPS": "Send the GPS destination",
      "APP_MESSAGE_ZOOM_IMG": "Zoom",
      "APP_MESSAGE_DELETE": "Delete",
      "APP_MESSAGE_SMS": "Text Message",
      "APP_MESSAGE_CONTACT_TITLE": "Contact",
      "APP_MESSAGE_CONTRACT_ENTER_NUMBER": "Enter a Number",
      "APP_MESSAGE_PLACEHOLDER_ENTER_MESSAGE": "Send a Message",
      "APP_MESSAGE_MESS_SMS": "SMS",
      "APP_MESSAGE_MESS_CALL": "Call",
      "APP_MESSAGE_MESS_COPY": "Copy",
      "APP_MESSAGE_SEND_PHOTO": "Send a Photo",
      "APP_SELECT_PHOTO": "Select photo",
      "APP_DARKTCHAT_TITLE": "Dark Chat",
      "APP_DARKTCHAT_NEW_CHANNEL": "Add a Channel",
      "APP_DARKTCHAT_DELETE_CHANNEL": "Delete the Channel",
      "APP_DARKTCHAT_CANCEL": "Cancel",
      "APP_DARKTCHAT_PLACEHOLDER_ENTER_MESSAGE": "Enter a Message",
      "APP_TWITTER_NAME": "Twitter",
      "APP_TWITTER_VIEW_TWITTER": "Twitter",
      "APP_TWITTER_VIEW_TOP_TWEETS": "Top Tweets",
      "APP_TWITTER_VIEW_TWEETER": "Tweets",
      "APP_TWITTER_VIEW_REPLY": "Reply",
      "APP_TWITTER_VIEW_SETTING": "Settings",
      "APP_TWITTER_NEW_ACCOUNT_USERNAME": "Username (>= 4)",
      "APP_TWITTER_NEW_ACCOUNT_PASSWORD": "Password (>= 6)",
      "APP_TWITTER_NEW_ACCOUNT_PASSWORD_CONFIRM": "Confirm Password",
      "APP_TWITTER_NEW_ACCOUNT_AVATAR": "URL of Avatar",
      "APP_TWITTER_PLACEHOLDER_MESSAGE": "What drama do you bring?",
      "APP_TWITTER_BUTTON_ACTION_TWEETER": "Send Tweet",
      "APP_TWITTER_BUTTON_ACTION_TWEETER_SENT": "Tweet was sent!",
      "APP_TWITTER_BUTTON_PHOTO_TWEETER": "Send Photo",
      "APP_TWITTER_ACCOUNT_LOGIN": "Login",
      "APP_TWITTER_ACCOUNT_LOGOUT": "Logout",
      "APP_TWITTER_ACCOUNT_PARAM": "My Account",
      "APP_TWITTER_ACCOUNT_AVATAR": "Change Avatar(URL)",
      "APP_TWITTER_ACCOUNT_AVATAR_TAKE": "Change Avatar (Camera)",
      "APP_TWITTER_ACCOUNT_CHANGE_PASSWORD": "Change Password",
      "APP_TWITTER_ACCOUNT_NEW": "New Account",
      "APP_TWIITER_ACCOUNT_SAVE": "Registration",
      "APP_TWIITER_ACCOUNT_CREATE": "Create Account",
      "APP_TWIITER_ACCOUNT_CANCEL": "Cancel",
      "APP_TWITTER_ACCOUNT_USERNAME": "Username",
      "APP_TWITTER_ACCOUNT_PASSWORD": "Password",
      "APP_TWITTER_NOTIFICATION": "Notifications",
      "APP_TWITTER_NOTIFICATION_WHEN": "To Be Notified",
      "APP_TWITTER_NOTIFICATION_ALL": "All News",
      "APP_TWITTER_NOTIFICATION_MENTION": "Just Mentioned",
      "APP_TWITTER_NOTIFICATION_NEVER": "Nobody",
      "APP_TWITTER_NOTIFICATION_SOUND": "Play Sound",
      "APP_YES": "Yes",
      "APP_NO": "No",
      "APP_TWITTER_NOTIF_ACCOUNT_CREATE_SUCCESS": "Account Created",
      "APP_TWITTER_NOTIF_ACCOUNT_CREATE_ERROR": "Account Creation Failed (Username already in use.)",
      "APP_TWITTER_NOTIF_LOGIN_SUCCESS": "You are now connected.",
      "APP_TWITTER_NOTIF_LOGIN_ERROR": "Invalid Username/Password",
      "APP_TWITTER_NOTIF_AVATAR_SUCCESS": "Your profile image has been changed!",
      "APP_TWITTER_NOTIF_NEW_PASSWORD_SUCCESS": "Password changed successfully.",
      "APP_TWITTER_NOTIF_NEW_PASSWORD_ERROR": "Oops... Your password could not be changed.",
      "APP_TWITTER_NOTIF_NEW_PASSWORD_MISS_MATCH": "Passwords do not match",
      "APP_TWITTER_NOTIF_NEW_PASSWORD_LENGTH_ERROR": "Password too short",
      "APP_NOTES": "Notes",
      "APP_BANK_TITLE_BALANCE": "Available Balance",
      "APP_BANK_TITLE_ENTER_MONEY": "Enter Quantity",
      "APP_BANK_BUTTON_TRANSFER": "Transfer",
      "APP_BANK_BUTTON_CANCEL": "Cancel",
      "APP_DARKTCHAT_NEW_NOTE": "New Note",
      "APP_DARKTCHAT_DELETE_NOTE": "Delete Note",
      "APP_EMERGENCY_TITLE": "Emergency calls",
      "APP_EMERGENCY_MARK_DONE": "Emergency resolved",
      "APP_EMERGENCY_MARK_UNDONE": "Emergency not resolved",
      "APP_EMERGENCY_TAKEN_BY": "taken by",
      "APP_EMERGENCY_TAKE": "Take call",
      "APP_EMERGENCY_UNTAKE": "Abandon call",
      "APP_EMERGENCY_GPS": "GPS Position",

      "TIMEAGO": [
        "Just Now",
        ["%s second ago", "%s seconds ago"],
        ["%s minute ago", "%s minutes ago"],
        ["%s hour ago", "%s hours ago"],
        ["%s day ago", "%s days ago"],
        ["%s week ago", "%s weeks ago"],
        ["%s month ago", "%s months ago"],
        ["%s year ago", "%s years ago"]
      ]
    },
    "de_DE": {
      "NAME": "Deutsch",
      "PHONE_WARNING_MESSAGE": "Achtung!",
      "PHONE_WARNING_MESSAGE_MESS": "Nachrichten",
      "CONFIRM": "Akzeptieren",
      "APP_MESSAGE_SAVE_CONTACT": "Kontakt speichern",
      "CANCEL": "Abbrechen",
      "APP_CONFIG_TITLE": "Einstellungen",
      "APP_CONFIG_MY_MUNBER": "Meine Nummer",
      "APP_CONFIG_WALLPAPER": "Hintergrundbild",
      "APP_CONFIG_CASE": "Telefontyp",
      "APP_CONFIG_SOUND": "Call Tone",
      "APP_CONFIG_ZOOM": "Grösse",
      "APP_CONFIG_VOLUME": "Lautstärke",
      "APP_CONFIG_LANGUAGE": "Sprache",
      "APP_CONFIG_MOUSE_SUPPORT": "Maussteuerung",
      "APP_CONFIG_RESET": "Werkseinstellungen",
      "APP_CONFIG_RESET_CONFIRM": "Zurücksetzen",
      "APP_PHONE_CALL": "Anrufen",
      "APP_PHONE_DELETE": "Löschen",
      "APP_PHONE_DELETE_ALL": "Alle löschen",
      "APP_PHONE_TITLE": "Telefon",
      "APP_PHONE_CALL_ANONYMOUS": "Anonymer Anruf",
      "APP_PHONE_MENU_FAVORITES": "Favoriten",
      "APP_PHONE_MENU_RECENTS": "Kürzlich",
      "APP_PHONE_MENU_CONTACTS": "Kontakte",
      "APP_PHONE_ENTER_NUMBER": "Nummer eingeben",
      "APP_PHONE_NUMBER_HIDDEN": "Nummer unterdrückt",
      "APP_PHONE_NUMBER_UNKNOWN": "Unbekannt",
      "APP_PHONE_BUSY": "Busy",
      "APP_PHONE_CALL_IGNORE": "Ignorieren",
      "APP_BANK_TITLE": "Bank",
      "APP_BOURSE_TITLE": "Börse",
      "APP_CONTACT_TITLE": "Kontakt",
      "APP_CONTACT_NEW": "Neuer Kontakt",
      "APP_CONTACT_SEARCH": "Search...",
      "APP_PHOTOGALLERY_TITLE": "Galerie Photo",
      "APP_PHOTO_SHARE": "Partager",
      "APP_CONTACT_EDIT": "Kontakt bearbeiten",
      "APP_CONTACT_SAVE": "Speichern",
      "APP_CONTACT_CANCEL": "Abbrechen",
      "APP_CONTACT_DELETE": "Löschen",
      "APP_CONTACT_LABEL_NAME": "Vorname - Nachname",
      "APP_CONTACT_LABEL_NUMBER": "Rufnummer",
      "APP_MESSAGE_TITLE": "Nachrichten",
      "APP_MESSAGE_NEW_MESSAGE": "Neue Nachricht",
      "APP_MESSAGE_ERASE_CONVERSATION": "Konversation löschen",
      "APP_MESSAGE_ERASE_ALL_CONVERSATIONS": "Alle Konversationen löschen",
      "APP_MESSAGE_ERASE_SURE": "Êtes-vous sûr(e) de vouloir supprimer cette conversation ?",
      "APP_MESSAGE_ERASE_ALL_SURE": "Êtes-vous sûr(e) de vouloir supprimer TOUTES les conversations ?",
      "APP_MESSAGE_SEND_GPS": "GPS Position senden",
      "APP_MESSAGE_SET_GPS": "Position als Ziel setzen",
      "APP_MESSAGE_SEND_PHOTO": "Stuur een foto",
      "APP_MESSAGE_SEND_GPS_REALTIME": "GPS-Position in Echtzeit",
      "APP_MESSAGE_SEND_GPS_REALTIME_TIME_1": "1 minute",
      "APP_MESSAGE_SEND_GPS_REALTIME_TIME_2": "5 minuten",
      "APP_MESSAGE_SEND_GPS_REALTIME_TIME_3": "10 Minutes",
      "APP_MESSAGE_ZOOM_IMG": "Zoom",
      "APP_MESSAGE_DELETE": "Löschen",
      "APP_MESSAGE_MESS_NUMBER": "Nummer ",
      "APP_MESSAGE_MESS_SMS": "SMS",
      "APP_MESSAGE_MESS_CALL": "Anrufen",
      "APP_MESSAGE_MESS_COPY": "Kopieren",
      "APP_MESSAGE_CONTACT_TITLE": "Kontakte",
      "APP_MESSAGE_CONTRACT_ENTER_NUMBER": "Eine Nummer eingeben",
      "APP_MESSAGE_PLACEHOLDER_ENTER_MESSAGE": "Nachricht eingeben",
      "APP_DARKTCHAT_TITLE": "Anonymer Chat",
      "APP_DARKTCHAT_NEW_CHANNEL": "Neuen Channel erstellen",
      "APP_DARKTCHAT_DELETE_CHANNEL": "Channel löschen",
      "APP_DARKTCHAT_CANCEL": "Abbrechen",
      "APP_DARKTCHAT_PLACEHOLDER_ENTER_MESSAGE": "Nachricht eingeben",
      "APP_TWITTER_NAME": "Twitter",
      "APP_TWITTER_VIEW_TWITTER": "Twitter",
      "APP_TWITTER_VIEW_TOP_TWEETS": "Top Tweets",
      "APP_TWITTER_VIEW_TWEETER": "Tweeter",
      "APP_TWITTER_VIEW_SETTING": "Einstellungen",
      "APP_TWITTER_NEW_ACCOUNT_USERNAME": "Benutzername (>= 4)",
      "APP_TWITTER_NEW_ACCOUNT_PASSWORD": "Passwort (>= 6)",
      "APP_TWITTER_NEW_ACCOUNT_PASSWORD_CONFIRM": "Passwort bestätigen",
      "APP_TWITTER_NEW_ACCOUNT_AVATAR": "Avatar-URL",
      "APP_TWITTER_PLACEHOLDER_MESSAGE": "Was gibts neues?",
      "APP_TWITTER_BUTTON_ACTION_TWEETER": "Twittern",
      "APP_TWITTER_BUTTON_PHOTO_TWEETER": "Send Photo",
      "APP_TWITTER_ACCOUNT_LOGIN": "Einloggen",
      "APP_TWITTER_ACCOUNT_LOGOUT": "Ausloggen",
      "APP_TWITTER_ACCOUNT_PARAM": "Mein Account",
      "APP_TWITTER_ACCOUNT_AVATAR": "Avatar ändern",
      "APP_TWITTER_ACCOUNT_AVATAR_TAKE": "Avatar wechseln (Kamera)",
      "APP_TWITTER_ACCOUNT_CHANGE_PASSWORD": "Passwort ändern",
      "APP_TWITTER_ACCOUNT_NEW": "Neuer Account",
      "APP_TWIITER_ACCOUNT_SAVE": "Registrieren",
      "APP_TWIITER_ACCOUNT_CREATE": "Account erstellen",
      "APP_TWIITER_ACCOUNT_CANCEL": "Abbrechen",
      "APP_TWITTER_ACCOUNT_USERNAME": "Benutzername",
      "APP_TWITTER_ACCOUNT_PASSWORD": "Passwort",
      "APP_TWITTER_NOTIFICATION": "Notification",
      "APP_TWITTER_NOTIFICATION_WHEN": "Benachrichtigungen",
      "APP_TWITTER_NOTIFICATION_ALL": "Alle Nachrichten",
      "APP_TWITTER_NOTIFICATION_MENTION": "Nachrichten mit Erwähnung",
      "APP_TWITTER_NOTIFICATION_NEVER": "Niemals",
      "APP_TWITTER_NOTIFICATION_SOUND": "Benachrichtigungston",
      "APP_YES": "An",
      "APP_NO": "Aus",
      "APP_TWITTER_NOTIF_ACCOUNT_CREATE_SUCCESS": "Dein Twitter-Account wurde erstellt.",
      "APP_TWITTER_NOTIF_ACCOUNT_CREATE_ERROR": "Dein Twitter-Account konnte nicht erstellt werden (Benutzername bereits verwendet?)",
      "APP_TWITTER_NOTIF_LOGIN_SUCCESS": "Du hast dich erfolgreich eingeloggt.",
      "APP_TWITTER_NOTIF_LOGIN_ERROR": "Ungültiges Konto / Passwort",
      "APP_TWITTER_NOTIF_AVATAR_SUCCESS": "Dein Avatar wurde geändert.",
      "APP_TWITTER_NOTIF_NEW_PASSWORD_SUCCESS": "Dein Passwort wurde geändert.",
      "APP_TWITTER_NOTIF_NEW_PASSWORD_ERROR": "Ups.... dein Passwort konnte nicht geändert werden.",
      "APP_TWITTER_NOTIF_NEW_PASSWORD_MISS_MATCH": "Passwörter stimmen nicht überein",
      "APP_TWITTER_NOTIF_NEW_PASSWORD_LENGTH_ERROR": "Passwort zu kurz",
      "APP_TWITTER_VIEW_REPLY": "Antwoord",
      "APP_NOTES": "Notizen",
      "APP_BANK_TITLE_BALANCE": "Kontostand",
      "APP_BANK_TITLE_ENTER_MONEY": "Kontonummer",
      "APP_BANK_BUTTON_TRANSFER": "Übertragen",
      "APP_BANK_BUTTON_CANCEL": "Abbrechen",
      "APP_DARKTCHAT_NEW_NOTE": "Neue Notiz",
      "APP_DARKTCHAT_DELETE_NOTE": "Löschen Sie die Notiz",

      "TIMEAGO": [
        "jetzt gerade",
        ["vor %s Sekunde", "vor %s Sekunden"],
        ["vor %s Minute", "vor %s Minuten"],
        ["vor %s Stunde", "vor %s Stunden"],
        ["vor %s Tag", "vor %s Tagen"],
        ["vor %s Woche", "vor %s Wochen"],
        ["vor %s Monat", "vor %s Monaten"],
        ["vor %s Jahr", "vor %s Jahren"]
      ]
    },
    "pl_PL": {
      "NAME": "Polski",
      "PHONE_WARNING_MESSAGE": "Ostrzeżenie",
      "PHONE_WARNING_MESSAGE_MESS": "Wiadomości",
      "CONFIRM": "Potwierdź",
      "CANCEL": "Anuluj",
      "APP_CONFIG_TITLE": "Ustawienia",
      "APP_CONFIG_MY_MUNBER": "Mój numer",
      "APP_MESSAGE_SAVE_CONTACT": "Zapisz kontakt",
      "APP_CONFIG_WALLPAPER": "Tapeta",
      "APP_CONFIG_MOUSE_SUPPORT": "Wsparcie myszki",
      "APP_CONFIG_CASE": "Pokrywa telefonu",
      "APP_CONFIG_SOUND": "Dzwonek",
      "APP_CONFIG_ZOOM": "Przybliżenie",
      "APP_CONFIG_VOLUME": "Głośność",
      "APP_CONFIG_LANGUAGE": "Język",
      "APP_PHONE_CALL_ANONYMOUS": "Połączenie anonimowe",
      "APP_CONFIG_RESET": "Format",
      "APP_CONFIG_RESET_CONFIRM": "Usuń wszystko",
      "APP_PHONE_CALL": "Zadzwoń",
      "APP_PHONE_DELETE": "Usuń",
      "APP_PHONE_DELETE_ALL": "Usuń wszystko",
      "APP_PHONE_TITLE": "Telefon",
      "APP_PHONE_MENU_FAVORITES": "Ulubione",
      "APP_PHONE_MENU_RECENTS": "Ostatnie",
      "APP_PHONE_MENU_CONTACTS": "Kontakty",
      "APP_PHONE_ENTER_NUMBER": "Wprowadź numer",
      "APP_BANK_TITLE": "Bank",
      "APP_BOURSE_TITLE": "Giełda",
      "APP_CONTACT_TITLE": "Dodaj kontakt",
      "APP_CONTACT_NEW": "Nowy kontakt",
      "APP_CONTACT_SEARCH": "Search...",
      "APP_PHOTOGALLERY_TITLE": "Galerie Photo",
      "APP_PHOTO_SHARE": "Partager",
      "APP_CONTACT_EDIT": "Zmień kontakt",
      "APP_CONTACT_SAVE": "Zapisz",
      "APP_CONTACT_CANCEL": "Anuluj",
      "APP_CONTACT_DELETE": "Usuń",
      "APP_PHONE_CANCEL": "Anuluj",
      "APP_PHONE_ADD": "Dodaj kontakt",
      "APP_CONTACT_LABEL_NAME": "Imię - Nazwisko",
      "APP_CONTACT_LABEL_NUMBER": "Numer",
      "APP_MESSAGE_TITLE": "Wiadomości",
      "APP_MESSAGE_NEW_MESSAGE": "Nowa wiadomość",
      "APP_MESSAGE_ERASE_CONVERSATION": "Usuń połączenie",
      "APP_MESSAGE_ERASE_ALL_CONVERSATIONS": "Usuń wszystkie połączenia",
      "APP_MESSAGE_ERASE_SURE": "Êtes-vous sûr(e) de vouloir supprimer cette conversation ?",
      "APP_MESSAGE_ERASE_ALL_SURE": "Êtes-vous sûr(e) de vouloir supprimer TOUTES les conversations ?",
      "APP_MESSAGE_SEND_GPS": "Wyślij lokacje GPS",
      "APP_MESSAGE_SET_GPS": "Ustaw lokacje GPS",
      "APP_MESSAGE_SEND_GPS_REALTIME": "GPS w czasie rzeczywistym",
      "APP_MESSAGE_SEND_GPS_REALTIME_TIME_1": "1 minuta",
      "APP_MESSAGE_SEND_GPS_REALTIME_TIME_2": "5 minut",
      "APP_MESSAGE_SEND_GPS_REALTIME_TIME_3": "10 minut",
      "APP_MESSAGE_SEND_PHOTO": "Przesłać zdjęcie",
      "APP_MESSAGE_ZOOM_IMG": "Powiększ",
      "APP_MESSAGE_DELETE": "Usuń",
      "APP_MESSAGE_SMS": "Wiadomość tekstowa",
      "APP_SELECT_PHOTO": "Select photo",
      "APP_MESSAGE_CONTACT_TITLE": "Kontakty",
      "APP_MESSAGE_CONTRACT_ENTER_NUMBER": "Wprowadź numer",
      "APP_MESSAGE_PLACEHOLDER_ENTER_MESSAGE": "Wyślij wiadomość",
      "APP_DARKTCHAT_TITLE": "DarkChat",
      "APP_DARKTCHAT_NEW_CHANNEL": "Dodaj kanał",
      "APP_DARKTCHAT_DELETE_CHANNEL": "Usuń kanał",
      "APP_DARKTCHAT_CANCEL": "przerwać",
      "APP_DARKTCHAT_PLACEHOLDER_ENTER_MESSAGE": "Wprowadź wiadomość",
      "APP_TWITTER_NAME": "Twitter",
      "APP_TWITTER_VIEW_TWITTER": "Twitter",
      "APP_TWITTER_VIEW_TOP_TWEETS": "Top Tweety",
      "APP_TWITTER_VIEW_TWEETER": "Tweety",
      "APP_TWITTER_VIEW_SETTING": "Ustawienia",
      "APP_TWITTER_NEW_ACCOUNT_USERNAME": "Nazwa użytkownika (>= 4)",
      "APP_TWITTER_NEW_ACCOUNT_PASSWORD": "Hasło (>= 6)",
      "APP_TWITTER_NEW_ACCOUNT_PASSWORD_CONFIRM": "Potwierdź hasło",
      "APP_TWITTER_NEW_ACCOUNT_AVATAR": "URL twojego awatara",
      "APP_TWITTER_PLACEHOLDER_MESSAGE": "Co się z tobą dzieje?",
      "APP_TWITTER_BUTTON_ACTION_TWEETER": "Wyślij",
      "APP_TWITTER_BUTTON_PHOTO_TWEETER": "Wyślij zdjęcie",
      "APP_TWITTER_ACCOUNT_LOGIN": "Zaloguj się",
      "APP_TWITTER_ACCOUNT_LOGOUT": "Wyloguj się",
      "APP_TWITTER_ACCOUNT_PARAM": "Moje konto",
      "APP_TWITTER_ACCOUNT_AVATAR": "Zmiana Avatara",
      "APP_TWITTER_ACCOUNT_CHANGE_PASSWORD": "Zmiana hasła",
      "APP_TWITTER_ACCOUNT_NEW": "Nowe konto",
      "APP_TWIITER_ACCOUNT_SAVE": "Zapisz",
      "APP_TWIITER_ACCOUNT_CREATE": "Utwórz konto",
      "APP_TWIITER_ACCOUNT_CANCEL": "Anuluj",
      "APP_TWITTER_ACCOUNT_USERNAME": "Login",
      "APP_TWITTER_ACCOUNT_PASSWORD": "Hasło",
      "APP_TWITTER_ACCOUNT_AVATAR_TAKE": "Zmień awatara (aparat)",
      "APP_TWITTER_NOTIFICATION": "Powiadomienia",
      "APP_TWITTER_NOTIFICATION_WHEN": "Kiedy powiadomic",
      "APP_TWITTER_NOTIFICATION_ALL": "Wszystkie wiadomości",
      "APP_TWITTER_NOTIFICATION_MENTION": "Oznaczenie",
      "APP_TWITTER_NOTIFICATION_NEVER": "Żadne",
      "APP_TWITTER_NOTIFICATION_SOUND": "Powiadomienie dzwiękowe",
      "APP_YES": "Tak",
      "APP_NO": "Nie",
      "APP_TWITTER_VIEW_REPLY": "Odpowiedź",
      "APP_TWITTER_NOTIF_ACCOUNT_CREATE_SUCCESS": "Twoje konto na Twitterze zostało utworzone",
      "APP_TWITTER_NOTIF_ACCOUNT_CREATE_ERROR": "Twoje konto na Twitterze nie mogło zostać utworzone (nazwa użytkownika zajęta?)",
      "APP_TWITTER_NOTIF_LOGIN_SUCCESS": "Jesteś połączony z Twitterem",
      "APP_TWITTER_NOTIF_LOGIN_ERROR": "Nieprawidłowe konto / hasła",
      "APP_TWITTER_NOTIF_AVATAR_SUCCESS": "Twój awatar został zmieniony!",
      "APP_TWITTER_NOTIF_NEW_PASSWORD_SUCCESS": "Twoje hasło zostało zmienione",
      "APP_TWITTER_NOTIF_NEW_PASSWORD_ERROR": "Ups... Twoje hasło nie mogło zostać zmienione",
      "APP_TWITTER_NOTIF_NEW_PASSWORD_MISS_MATCH": "Hasła nie pasują do siebie",
      "APP_TWITTER_NOTIF_NEW_PASSWORD_LENGTH_ERROR": "Hasło jest za krótkie",
      "APP_NOTES": "Notatki",
      "APP_BANK_TITLE_BALANCE": "Saldo konta",
      "APP_BANK_TITLE_ENTER_MONEY": "Numer konta",
      "APP_BANK_BUTTON_TRANSFER": "Przelej",
      "APP_BANK_BUTTON_CANCEL": "Anuluj",
      "APP_DARKTCHAT_NEW_NOTE": "Dodaj notatkę",
      "APP_DARKTCHAT_DELETE_NOTE": "Usuń notatkę",

      "TIMEAGO": [
        "tylko teraz",
        ["mniej niż minuta"],
        ["około minuty", "%s minut"],
        ["około godziny", "około %s godzin"],
        ["około tygodnia", "%s tydzień"],
        ["%s week ago", "%s weeks ago"],
        ["około miesiąca", "%s miesięcy"],
        ["około roku", "%s lat"]
      ]
    },
    "es_ES": {
      "NAME": "Español",
      "PHONE_WARNING_MESSAGE": "Recuerdo",
      "PHONE_WARNING_MESSAGE_MESS": "Noticias",
      "CONFIRM": "Aceptar",
      "CANCEL": "Cancelar",
      "APP_MESSAGE_SAVE_CONTACT": "Guardar contacto",
      "APP_CONFIG_TITLE": "Ajustes",
      "APP_CONFIG_MY_MUNBER": "Mi número",
      "APP_CONFIG_WALLPAPER": "Fondo pantalla",
      "APP_CONFIG_CASE": "Funda",
      "APP_CONFIG_SOUND": "Tono de llamada",
      "APP_CONFIG_MOUSE_SUPPORT": "Control",
      "APP_CONFIG_ZOOM": "Zoom",
      "APP_CONFIG_VOLUME": "Volumen",
      "APP_CONFIG_LANGUAGE": "Idioma",
      "APP_CONFIG_RESET": "Formatear",
      "APP_CONFIG_RESET_CONFIRM": "Borrar todo",
      "APP_PHONE_CALL": "Llamar",
      "APP_PHONE_CALL_ANONYMOUS": "Llamada Anonima",
      "APP_PHONE_DELETE": "Borrar",
      "APP_PHONE_DELETE_ALL": "Borrar todo.",
      "APP_PHONE_CANCEL": "Cancelar",
      "APP_PHONE_ADD": "Añadir contacto",
      "APP_PHONE_TITLE": "Contactos",
      "APP_PHONE_MENU_FAVORITES": "preferidos",
      "APP_PHONE_MENU_RECENTS": "Recientes",
      "APP_PHONE_MENU_CONTACTS": "Contactos",
      "APP_PHONE_ENTER_NUMBER": "Introduzca un número",
      "APP_BANK_TITLE": "Banco",
      "APP_BOURSE_TITLE": "Bolsa de valores",
      "APP_CONTACT_TITLE": "Contactos",
      "APP_CONTACT_NEW": "Nuevo contacto",
      "APP_CONTACT_SEARCH": "Search...",
      "APP_PHOTOGALLERY_TITLE": "Galerie Photo",
      "APP_PHOTO_SHARE": "Partager",
      "APP_CONTACT_EDIT": "Cambiar el contacto",
      "APP_CONTACT_SAVE": "Guardar",
      "APP_CONTACT_CANCEL": "Cancelar",
      "APP_CONTACT_DELETE": "Borrar",
      "APP_CONTACT_LABEL_NAME": "Nombre",
      "APP_CONTACT_LABEL_NUMBER": "Número",
      "APP_MESSAGE_TITLE": "Chats",
      "APP_MESSAGE_TITLE_EDIT": "Editar",
      "APP_MESSAGE_TITLE_DELETE": "Borrar",
      "APP_MESSAGE_NEW_MESSAGE": "Nuevo Mensaje",
      "APP_MESSAGE_ERASE_CONVERSATION": "Borrar la llamada",
      "APP_MESSAGE_ERASE_ALL_CONVERSATIONS": "Borrar todos los conv.",
      "APP_MESSAGE_ERASE_SURE": "Êtes-vous sûr(e) de vouloir supprimer cette conversation ?",
      "APP_MESSAGE_ERASE_ALL_SURE": "Êtes-vous sûr(e) de vouloir supprimer TOUTES les conversations ?",
      "APP_MESSAGE_SEND_GPS": "Enviar ubicación",
      "APP_MESSAGE_SEND_GPS_REALTIME": "Compartir ubicacion en tiempo real",
      "APP_MESSAGE_SEND_GPS_REALTIME_TIME_1": "1 Minuto",
      "APP_MESSAGE_SEND_GPS_REALTIME_TIME_2": "5 Minutos",
      "APP_MESSAGE_SEND_GPS_REALTIME_TIME_3": "10 Minutos",
      "APP_MESSAGE_SET_GPS": "Ubicación",
      "APP_MESSAGE_ZOOM_IMG": "Ampliar",
      "APP_MESSAGE_DELETE": "Borrar",
      "APP_MESSAGE_SMS": "Mensaje de texto",
      "APP_SELECT_PHOTO": "Select photo",
      "APP_MESSAGE_CONTACT_TITLE": "Contactos",
      "APP_MESSAGE_CONTRACT_ENTER_NUMBER": "Introduzca un número",
      "APP_MESSAGE_PLACEHOLDER_ENTER_MESSAGE": "Enviar un mensaje",
      "APP_DARKTCHAT_TITLE": "Chat Oscuro",
      "APP_DARKTCHAT_NEW_CHANNEL": "Añadir un canal",
      "APP_DARKTCHAT_DELETE_CHANNEL": "Borrar el canal",
      "APP_DARKTCHAT_NEW_NOTE": "Añadir un nota",
      "APP_DARKTCHAT_DELETE_NOTE": "Borrar la nota",
      "APP_DARKTCHAT_CANCEL": "Cancelar",
      "APP_DARKTCHAT_PLACEHOLDER_ENTER_MESSAGE": "Escriba un mensaje",
      "APP_TWITTER_NAME": "Twitter",
      "APP_TWITTER_VIEW_TWITTER": "Twitter",
      "APP_TWITTER_VIEW_TOP_TWEETS": "Mejores tweets",
      "APP_TWITTER_VIEW_TWEETER": "Tweets",
      "APP_TWITTER_VIEW_SETTING": "Ajustes",
      "APP_TWITTER_VIEW_REPLY": "Responder",
      "APP_TWITTER_NEW_ACCOUNT_USERNAME": "Nombre de usuario (>= 4)",
      "APP_TWITTER_NEW_ACCOUNT_PASSWORD": "Contraseña (>= 6)",
      "APP_TWITTER_NEW_ACCOUNT_PASSWORD_CONFIRM": "Confirmar contraseña",
      "APP_TWITTER_NEW_ACCOUNT_AVATAR": "URL de tu avatar",
      "APP_TWITTER_PLACEHOLDER_MESSAGE": "¿Qué es lo pasa hoy?",
      "APP_TWITTER_BUTTON_ACTION_TWEETER": "Twittear",
      "APP_TWITTER_BUTTON_ACTION_TWEETER_SENT": "Tweet enviado!",
      "APP_TWITTER_BUTTON_PHOTO_TWEETER": "Mandar una foto",
      "APP_TWITTER_ACCOUNT_LOGIN": "Iniciar sesión en el sitio web",
      "APP_TWITTER_ACCOUNT_LOGOUT": "Desvincular cuenta",
      "APP_TWITTER_ACCOUNT_PARAM": "Mi cuenta",
      "APP_TWITTER_ACCOUNT_AVATAR": "Cambiar foto de perfil",
      "APP_TWITTER_ACCOUNT_AVATAR_TAKE": "Cambiar foto de perfil (camara)",
      "APP_TWITTER_ACCOUNT_CHANGE_PASSWORD": "Cambiar contraseña",
      "APP_TWITTER_ACCOUNT_NEW": "Nueva cuenta",
      "APP_TWIITER_ACCOUNT_SAVE": "matriculación",
      "APP_MESSAGE_SEND_PHOTO": "Enviar foto",
      "APP_TWIITER_ACCOUNT_CREATE": "Crear la cuenta",
      "APP_TWIITER_ACCOUNT_CANCEL": "interrumpir",
      "APP_TWITTER_ACCOUNT_USERNAME": "nombre de usuario",
      "APP_TWITTER_ACCOUNT_PASSWORD": "contraseña",
      "APP_TWITTER_NOTIFICATION": "Ajustes",
      "APP_TWITTER_NOTIFICATION_WHEN": "Para ser notificado",
      "APP_TWITTER_NOTIFICATION_ALL": "Todas las notificaciones",
      "APP_TWITTER_NOTIFICATION_MENTION": "Sólo menciones",
      "APP_TWITTER_NOTIFICATION_NEVER": "Ninguna",
      "APP_TWITTER_NOTIFICATION_SOUND": "Reproducir un sonido",
      "APP_YES": "Sí",
      "APP_NO": "No",
      "APP_TWITTER_NOTIF_ACCOUNT_CREATE_SUCCESS": "Tu cuenta de Twitter ha sido creada.",
      "APP_TWITTER_NOTIF_ACCOUNT_CREATE_ERROR": "Tu cuenta de Twitter no ha podido ser creada (nombre de usuario ya utilizado?)",
      "APP_TWITTER_NOTIF_LOGIN_SUCCESS": "Estás conectado a Twitter.",
      "APP_TWITTER_NOTIF_LOGIN_ERROR": "Cuenta no válida / contraseñas",
      "APP_TWITTER_NOTIF_AVATAR_SUCCESS": "Tu avatar ha cambiado!",
      "APP_TWITTER_NOTIF_NEW_PASSWORD_SUCCESS": "Su contraseña ha sido cambiada.",
      "APP_TWITTER_NOTIF_NEW_PASSWORD_ERROR": "Oops...... Su contraseña no se ha podido cambiar.",
      "APP_TWITTER_NOTIF_NEW_PASSWORD_MISS_MATCH": "Las contraseñas no coinciden",
      "APP_TWITTER_NOTIF_NEW_PASSWORD_LENGTH_ERROR": "Contraseña demasiado corta",
      "APP_PHONE_NUMBER_HIDDEN": "Número oculto",
      "APP_PHONE_NUMBER_UNKNOWN": "Número desconocido",
      "APP_NOTES": "Notas",
      "APP_BANK_TITLE_BALANCE": "Saldo en la cuenta",
      "APP_BANK_TITLE_ENTER_MONEY": "Número de cuenta",
      "APP_BANK_BUTTON_TRANSFER": "Transferencia",
      "APP_BANK_BUTTON_CANCEL": "Cancelar",
      "APP_MESSAGE_MESS_SMS": "SMS",
      "APP_MESSAGE_MESS_CALL": "Llamar",
      "APP_MESSAGE_MESS_COPY": "Copiar",

      "TIMEAGO": [
        "ahora",
        ["hace %s segundo", "hace %s segundos"],
        ["hace %s minuto", "hace %s minutos"],
        ["hace %s hora", "hace %s horas"],
        ["hace %s día", "hace %s días"],
        ["hace %s semana", "hace %s semanas"],
        ["hace %s mes", "hace %s meses"],
        ["hace %s año", "hace %s años"]
      ]
    },
    "pt_PT": {
      "NAME": "Português",
      "PHONE_WARNING_MESSAGE": "AVISO",
      "PHONE_WARNING_MESSAGE_MESS": "Mensagens",
      "CONFIRM": "Aceitar",
      "CANCEL": "Abortar",
      "APP_CONFIG_TITLE": "Definições",
      "APP_MESSAGE_SAVE_CONTACT": "Guardar contacto",
      "APP_CONFIG_MY_MUNBER": "Meu número",
      "APP_CONFIG_WALLPAPER": "Wallpaper",
      "APP_CONFIG_CASE": "Capa do telemóvel",
      "APP_CONFIG_SOUND": "Ringtone",
      "APP_CONFIG_ZOOM": "Zoom",
      "APP_CONFIG_VOLUME": "Volume",
      "APP_CONFIG_LANGUAGE": "Idioma",
      "APP_PHONE_CALL_ANONYMOUS": "Chamada Anônima",
      "APP_PHONE_NUMBER_HIDDEN": "Número Oculto",
      "APP_PHONE_NUMBER_UNKNOWN": "Desconhecido",
      "APP_CONFIG_MOUSE_SUPPORT": "Controlo do Rato",
      "APP_CONFIG_RESET": "Formatar",
      "APP_CONFIG_RESET_CONFIRM": "FORMATAR TUDO",
      "APP_PHONE_CALL": "Chamar",
      "APP_PHONE_DELETE": "Eliminar",
      "APP_PHONE_DELETE_ALL": "Eliminar tudo",
      "APP_PHONE_CANCEL": "Cancelar",
      "APP_PHONE_ADD": "Adicionar Contacto",
      "APP_PHONE_TITLE": "Número de telemóvel",
      "APP_PHONE_MENU_FAVORITES": "Favoritos",
      "APP_PHONE_MENU_RECENTS": "Recentes",
      "APP_PHONE_MENU_CONTACTS": "Contactos",
      "APP_PHONE_ENTER_NUMBER": "Insere um número",
      "APP_BANK_TITLE": "Banco",
      "APP_BOURSE_TITLE": "Bolsa de Valores",
      "APP_CONTACT_TITLE": "Detalhes do Contacto",
      "APP_CONTACT_NEW": "Novo Contacto",
      "APP_CONTACT_SEARCH": "Search...",
      "APP_PHOTOGALLERY_TITLE": "Galerie Photo",
      "APP_PHOTO_SHARE": "Partager",
      "APP_CONTACT_EDIT": "Editar Contacto",
      "APP_CONTACT_SAVE": "Guardar",
      "APP_CONTACT_CANCEL": "Cancelar",
      "APP_CONTACT_DELETE": "Eliminar",
      "APP_CONTACT_LABEL_NAME": "Primeiro nome - Ultimo nome",
      "APP_CONTACT_LABEL_NUMBER": "Número",
      "APP_MESSAGE_TITLE": "Mensagens",
      "APP_MESSAGE_NEW_MESSAGE": "Nova Mensagem",
      "APP_MESSAGE_ERASE_CONVERSATION": "Eliminar Conversa",
      "APP_MESSAGE_ERASE_ALL_CONVERSATIONS": "Eliminar tudo",
      "APP_MESSAGE_ERASE_SURE": "Êtes-vous sûr(e) de vouloir supprimer cette conversation ?",
      "APP_MESSAGE_ERASE_ALL_SURE": "Êtes-vous sûr(e) de vouloir supprimer TOUTES les conversations ?",
      "APP_MESSAGE_SEND_GPS": "Enviar coordenadas de GPS",
      "APP_MESSAGE_SET_GPS": "Definir GPS",
      "APP_MESSAGE_SEND_GPS_REALTIME": "Posição GPS em tempo real",
      "APP_MESSAGE_SEND_GPS_REALTIME_TIME_1": "1 minuto",
      "APP_MESSAGE_SEND_GPS_REALTIME_TIME_2": "5 minutos",
      "APP_MESSAGE_SEND_GPS_REALTIME_TIME_3": "10 minutos",
      "APP_MESSAGE_ZOOM_IMG": "Zoom",
      "APP_MESSAGE_DELETE": "Eliminar",
      "APP_MESSAGE_SMS": "Mensagem de Texto",
      "APP_SELECT_PHOTO": "Select photo",
      "APP_MESSAGE_CONTACT_TITLE": "Contacto",
      "APP_MESSAGE_CONTRACT_ENTER_NUMBER": "Inserir Número",
      "APP_MESSAGE_PLACEHOLDER_ENTER_MESSAGE": "Enviar Mensagem",
      "APP_MESSAGE_MESS_SMS": "SMS",
      "APP_MESSAGE_MESS_CALL": "Chamar",
      "APP_MESSAGE_MESS_COPY": "Copiar",
      "APP_MESSAGE_SEND_PHOTO": "Enviar Foto",
      "APP_DARKTCHAT_TITLE": "Chat Anônimo",
      "APP_DARKTCHAT_NEW_CHANNEL": "Adicionar Canal",
      "APP_DARKTCHAT_DELETE_CHANNEL": "Eliminar Canal",
      "APP_DARKTCHAT_CANCEL": "Cancelar",
      "APP_DARKTCHAT_PLACEHOLDER_ENTER_MESSAGE": "Escrever Mensagem",
      "APP_TWITTER_NAME": "Twitter",
      "APP_TWITTER_VIEW_TWITTER": "Twitter",
      "APP_TWITTER_VIEW_TOP_TWEETS": "Top Tweets",
      "APP_TWITTER_VIEW_TWEETER": "Tweets",
      "APP_TWITTER_VIEW_SETTING": "Definições",
      "APP_TWITTER_NEW_ACCOUNT_USERNAME": "Usuário (>= 4)",
      "APP_TWITTER_NEW_ACCOUNT_PASSWORD": "Senha (>= 6)",
      "APP_TWITTER_NEW_ACCOUNT_PASSWORD_CONFIRM": "Confirmar Senha",
      "APP_TWITTER_NEW_ACCOUNT_AVATAR": "URL do Avatar",
      "APP_TWITTER_PLACEHOLDER_MESSAGE": "O que aconteceu?",
      "APP_TWITTER_BUTTON_ACTION_TWEETER": "Twitter",
      "APP_TWITTER_BUTTON_PHOTO_TWEETER": "Send Photo",
      "APP_TWITTER_ACCOUNT_LOGIN": "Login",
      "APP_TWITTER_ACCOUNT_LOGOUT": "Logout",
      "APP_TWITTER_ACCOUNT_PARAM": "Minha Conta",
      "APP_TWITTER_ACCOUNT_AVATAR": "Mudar Avatar",
      "APP_TWITTER_ACCOUNT_CHANGE_PASSWORD": "Mudar Senha",
      "APP_TWITTER_ACCOUNT_NEW": "Nova Conta",
      "APP_TWIITER_ACCOUNT_SAVE": "Registro",
      "APP_TWIITER_ACCOUNT_CREATE": "Criar Conta",
      "APP_TWIITER_ACCOUNT_CANCEL": "Cancelar",
      "APP_TWITTER_ACCOUNT_USERNAME": "Usuário",
      "APP_TWITTER_ACCOUNT_PASSWORD": "Senha",
      "APP_TWITTER_NOTIFICATION": "Notificações",
      "APP_TWITTER_NOTIFICATION_WHEN": "Ser Notificado",
      "APP_TWITTER_NOTIFICATION_ALL": "Todos os Tweets",
      "APP_TWITTER_NOTIFICATION_MENTION": "Só Mencionados",
      "APP_TWITTER_NOTIFICATION_NEVER": "Nunca",
      "APP_TWITTER_NOTIFICATION_SOUND": "Tocar Som",
      "APP_YES": "Sim",
      "APP_NO": "Não",
      "APP_TWITTER_NOTIF_ACCOUNT_CREATE_SUCCESS": "Conta Criada",
      "APP_TWITTER_NOTIF_ACCOUNT_CREATE_ERROR": "Criação de Conta Falhada (Usuário já usado.)",
      "APP_TWITTER_NOTIF_LOGIN_SUCCESS": "Estás conectado.",
      "APP_TWITTER_NOTIF_LOGIN_ERROR": "Usuário/Senha Inválido",
      "APP_TWITTER_NOTIF_AVATAR_SUCCESS": "A tua imagem de perfil foi mudada!",
      "APP_TWITTER_NOTIF_NEW_PASSWORD_SUCCESS": "Senha mudada com sucesso.",
      "APP_TWITTER_NOTIF_NEW_PASSWORD_ERROR": "Oops... Não conseguimos mudar a tua senha.",
      "APP_TWITTER_NOTIF_NEW_PASSWORD_MISS_MATCH": "As Senhas Não Coincidem",
      "APP_TWITTER_NOTIF_NEW_PASSWORD_LENGTH_ERROR": "Senha Curta",
      "APP_TWITTER_VIEW_REPLY": "Responder",
      "APP_TWITTER_ACCOUNT_AVATAR_TAKE": "Alterar avatar (câmera)",
      "APP_NOTES": "Notas",
      "APP_BANK_TITLE_BALANCE": "Saldo Disponível",
      "APP_BANK_TITLE_ENTER_MONEY": "Inserir Quantidade",
      "APP_BANK_BUTTON_TRANSFER": "Transferir",
      "APP_BANK_BUTTON_CANCEL": "Cancelar",
      "APP_DARKTCHAT_NEW_NOTE": "Nova Nota",
      "APP_DARKTCHAT_DELETE_NOTE": "Eliminar Nota",

      "TIMEAGO": [
        "Agora mesmo",
        ["%s segundo atrás", "%s segundos atrás"],
        ["%s minuto atrás", "%s minutos atrás"],
        ["%s hora atrás", "%s horas atrás"],
        ["%s dia atrás", "%s dias atrás"],
        ["%s semana atrás", "%s semanas atrás"],
        ["%s mês atrás", "%s meses atrás"],
        ["%s ano atrás", "%s anos atrás"]
      ]
    },
     "cs_CZ": {
      "NAME": "Čeština",
      "PHONE_WARNING_MESSAGE": "připomínka",
      "PHONE_WARNING_MESSAGE_MESS": "zprávy",
      "CONFIRM": "Přijmout",
      "APP_MESSAGE_SAVE_CONTACT": "Ruani kontaktin",
      "CANCEL": "Zrušit",
      "APP_CONFIG_TITLE": "Nastavení",
      "APP_CONFIG_MY_MUNBER": "Mé číslo",
      "APP_CONFIG_WALLPAPER": "Tapeta",
      "APP_CONFIG_CASE": "Kryt telefonu",
      "APP_CONFIG_SOUND": "Vyzváněcí tón",
      "APP_CONFIG_ZOOM": "Přiblížení",
      "APP_CONFIG_VOLUME": "Hlasitost",
      "APP_CONFIG_LANGUAGE": "Jazyk",
      "APP_CONFIG_MOUSE_SUPPORT": "Ovldání myší",
      "APP_CONFIG_RESET": "Resetovat",
      "APP_CONFIG_RESET_CONFIRM": "SMAZAT VŠE",
      "APP_PHONE_CALL": "Volat",
      "APP_PHONE_DELETE": "Smazat",
      "APP_PHONE_DELETE_ALL": "Smazat vše.",
      "APP_PHONE_TITLE": "Telefonní čísla",
      "APP_PHONE_MENU_FAVORITES": "Oblíbené",
      "APP_PHONE_MENU_RECENTS": "Nejnovější",
      "APP_PHONE_MENU_CONTACTS": "Kontakty",
      "APP_PHONE_ENTER_NUMBER": "Zadej číslo",
      "APP_BANK_TITLE": "Banka",
      "APP_BOURSE_TITLE": "Burza",
      "APP_CONTACT_TITLE": "Detaily kontaktů",
      "APP_CONTACT_NEW": "Nový kontakt",
      "APP_CONTACT_SEARCH": "Search...",
      "APP_PHOTOGALLERY_TITLE": "Galerie Photo",
      "APP_PHOTO_SHARE": "Partager",
      "APP_CONTACT_EDIT": "Změnit kontakt",
      "APP_CONTACT_SAVE": "registrace",
      "APP_CONTACT_CANCEL": "zrušit",
      "APP_CONTACT_DELETE": "Smazat",
      "APP_CONTACT_LABEL_NAME": "Křestní jméno - Příjmení",
      "APP_CONTACT_LABEL_NUMBER": "číslo",
      "APP_MESSAGE_TITLE": "Zprávy",
      "APP_MESSAGE_NEW_MESSAGE": "Nová zpráva",
      "APP_MESSAGE_ERASE_CONVERSATION": "Smazat hovor",
      "APP_MESSAGE_ERASE_ALL_CONVERSATIONS": "Smazat všechny konver.",
      "APP_MESSAGE_ERASE_SURE": "Êtes-vous sûr(e) de vouloir supprimer cette conversation ?",
      "APP_MESSAGE_ERASE_ALL_SURE": "Êtes-vous sûr(e) de vouloir supprimer TOUTES les conversations ?",
      "APP_MESSAGE_SEND_GPS": "Poslat GPS polohu",
      "APP_MESSAGE_SET_GPS": "GPS pozise",
      "APP_MESSAGE_SEND_PHOTO": "Poslat fotku",
      "APP_MESSAGE_ZOOM_IMG": "Přiblížit",
      "APP_MESSAGE_DELETE": "Smazat",
      "APP_MESSAGE_SMS": "textová zpráva",
      "APP_SELECT_PHOTO": "Select photo",
      "APP_MESSAGE_CONTACT_TITLE": "kontakty",
      "APP_MESSAGE_CONTRACT_ENTER_NUMBER": "Zadej číslo",
      "APP_MESSAGE_PLACEHOLDER_ENTER_MESSAGE": "Odeslat zprávu",
      "APP_DARKTCHAT_TITLE": "Dark Chat",
      "APP_DARKTCHAT_NEW_CHANNEL": "Přidat kanál",
      "APP_DARKTCHAT_DELETE_CHANNEL": "Delete the channel",
      "APP_DARKTCHAT_CANCEL": "zrušit",
      "APP_DARKTCHAT_PLACEHOLDER_ENTER_MESSAGE": "Zadej zprávu",
      "APP_TWITTER_NAME": "Twitter",
      "APP_TWITTER_VIEW_REPLY": "Reagovat",
      "APP_TWITTER_VIEW_TWITTER": "Twitter",
      "APP_TWITTER_VIEW_TOP_TWEETS": "nejlepší tweety",
      "APP_TWITTER_VIEW_TWEETER": "tweety",
      "APP_TWITTER_VIEW_SETTING": "nastavení",
      "APP_TWITTER_NEW_ACCOUNT_USERNAME": "Přezdívka (>= 4)",
      "APP_TWITTER_NEW_ACCOUNT_PASSWORD": "Heslo (>= 6)",
      "APP_TWITTER_NEW_ACCOUNT_PASSWORD_CONFIRM": "Potvrdit heslo",
      "APP_TWITTER_NEW_ACCOUNT_AVATAR": "URL avataru",
      "APP_TWITTER_NEW_ACCOUNT_AVATAR_TAKE": "Změnit avatar (fotoaparát)",
      "APP_TWITTER_PLACEHOLDER_MESSAGE": "Co máš na mysli?",
      "APP_TWITTER_BUTTON_ACTION_TWEETER": "Tweetnout",
      "APP_TWITTER_BUTTON_PHOTO_TWEETER": "Send Photo",
      "APP_TWITTER_ACCOUNT_LOGIN": "Přihlásit se na stránku",
      "APP_TWITTER_ACCOUNT_LOGOUT": "Odhlásit se",
      "APP_TWITTER_ACCOUNT_PARAM": "Můj účet",
      "APP_TWITTER_ACCOUNT_AVATAR": "Měním avatar",
      "APP_TWITTER_ACCOUNT_CHANGE_PASSWORD": "Změnit heslo",
      "APP_TWITTER_ACCOUNT_NEW": "Nový účet",
      "APP_TWIITER_ACCOUNT_SAVE": "registrace",
      "APP_TWIITER_ACCOUNT_CREATE": "Vytvořit účet",
      "APP_TWIITER_ACCOUNT_CANCEL": "zrušit",
      "APP_TWITTER_ACCOUNT_USERNAME": "přezdívka",
      "APP_TWITTER_ACCOUNT_PASSWORD": "heslo",
      "APP_TWITTER_NOTIFICATION": "notifikace",
      "APP_TWITTER_NOTIFICATION_WHEN": "Bude  oznámeno",
      "APP_TWITTER_NOTIFICATION_ALL": "Všechny zprávy",
      "APP_TWITTER_NOTIFICATION_MENTION": "Jen zmínit",
      "APP_TWITTER_NOTIFICATION_NEVER": "Nikdo",
      "APP_TWITTER_NOTIFICATION_SOUND": "Přehrát zvuk",
      "APP_YES": "Ano",
      "APP_NO": "Ne",
      "APP_TWITTER_NOTIF_ACCOUNT_CREATE_SUCCESS": "Tvůj twitter byl vytvořen.",
      "APP_TWITTER_NOTIF_ACCOUNT_CREATE_ERROR": "Tvůj twitter účet nemohl být vytvořen (přezdívka již existuje?)",
      "APP_TWITTER_NOTIF_LOGIN_SUCCESS": "Jsi připojen na Twitter.",
      "APP_TWITTER_NOTIF_LOGIN_ERROR": "Neplatný účet / heslo",
      "APP_TWITTER_NOTIF_AVATAR_SUCCESS": "Tvůj avatar byl změněn!",
      "APP_TWITTER_NOTIF_NEW_PASSWORD_SUCCESS": "Tvé heslo bylo změněno.",
      "APP_TWITTER_NOTIF_NEW_PASSWORD_ERROR": "Oops.... Tvé heslo nemohlo být změněno.",
      "APP_TWITTER_NOTIF_NEW_PASSWORD_MISS_MATCH": "Hesla se neshodují",
      "APP_TWITTER_NOTIF_NEW_PASSWORD_LENGTH_ERROR": "Heslo je příliš krátké",
      "APP_DARKTCHAT_NEW_NOTE": "Nová poznámka",
      "APP_DARKTCHAT_DELETE_NOTE": "Smažte poznámku",
      "APP_BANK_TITLE_BALANCE": "Dostupné prostředky",
      "APP_BANK_TITLE_ENTER_MONEY": "Vložte sumu",
      "APP_BANK_BUTTON_TRANSFER": "Převést",
      "APP_BANK_BUTTON_CANCEL": "Zrušit",
      "APP_NOTES": "Poznámky",
      "APP_PHONE_CANCEL": "Zrušit",
      "APP_PHONE_ADD": "Zpět na plochu",
      "APP_MESSAGE_SEND_GPS_REALTIME": "Sdílet živou GPS polohu",
      "APP_MESSAGE_SEND_GPS_REALTIME_TIME_1": "1 Minuta",
      "APP_MESSAGE_SEND_GPS_REALTIME_TIME_2": "5 Minut",
      "APP_MESSAGE_SEND_GPS_REALTIME_TIME_3": "10 Minut",
      "APP_PHONE_CALL_ANONYMOUS": "Volat se skrytým číslem",

      "TIMEAGO": [
        "nyní",
        ["před  %s sekundou", "před %s sekundami"],
        ["před %s minutou", "před %s minutami"],
        ["před %s hodinou", "před %s hodinami"],
        ["před %s dnem", "před %s dny"],
        ["před %s týdnem", "před %s týdny"],
        ["před %s měsícem", "před %s měsíci"],
        ["před %s rokem", "před %s lety"]
      ]
    }
  }
}
